{
  "success": true,
  "data": {
    "api_config": {
      "timeout_limit": 5,
      "slowlog_limit": 2.5,
      "default_page_size": 20
    },
    "app_config": {
      "player_config": {
        "start_over_appearing_delay_seconds": 40,
        "seek_to_end_seconds" : 20,
        "max_playlist_extension_retries": 2,
        "playlist_update_retry_margin_seconds" : 40
      },
      "content_markers": {
        "_DEFAULT": {
          "color": "#ffffff",
          "background": "#5b2d90",
          "transparency": 1,
          "gradient": {
            "from": "#F23D24",
            "to": "#DF2D5F"
          }
        }
      },
      "style_settings": {
        "button_style": "proximus",
        "font_style": "proximus",
        "content_marker_style": "proximus"
      },
      "continue_watching": {
        "cw_size": 30,
        "cutv_watched_min_secs": 60,
        "pvr_watched_min_secs": 60,
        "vod_watched_min_secs": 1,
        "cutv_max_pct_watched": 95,
        "pvr_max_pct_watched": 95,
        "vod_max_pct_watched": 95,
        "cw_age_limit_mins": 14400
      },
      "locale_settings": {
        "date_format": "dd.MM.YYYY",
        "time_format": "HH:mm",
        "currency": "€"
      },
      "play_apps": {
        "featured": [
          {
            "name" : "STRIPE_FEATURED_APPS_NETFLIX",
            "package" : "com.netflix.ninja",
            "banner" : "com.netflix.ninja.jpg"
          },
          {
            "name" : "STRIPE_FEATURED_APPS_DISNEY_PLUS",
            "package" : "com.disney.disneyplus",
            "banner" : "com.disney.disneyplus.jpg"
          },
          {
            "name" : "STRIPE_FEATURED_APPS_YOUTUBE",
            "package" : "com.google.android.youtube.tv",
            "banner" : "com.google.android.youtube.tv.jpg"
          },
          {
            "name" : "Prime Video",
            "package" : "com.amazon.amazonvideo.livingroom",
            "banner" : "com.amazon.amazonvideo.livingroom-1.png"
          },
          {
            "name" : "STRIPE_FEATURED_APPS_RADIOLINE",
            "package" : "com.radioline.android.radioline.tv",
            "banner" : "com.radioline.android.radioline.jpg"
          }
        ],
        "store": [
          {
            "name" : "Play Store",
            "package" : "com.android.vending"
          }
        ]
      },
      "update_interval": 4,
      "forced_reboot_delay_seconds": 10,
      "channel_apps": [
        {
          "call_letter" : "DisneyP",
          "package_name": "com.disney.disneyplus"
        },
        {
          "call_letter": "Netflix",
          "package_name": "com.netflix.ninja"
        }
      ],

      "tracking": [
        {
          "service_name": "google_analytics",
          "key": "UA-83630839-1"
        },
        {
          "service_name": "mixpanel",
          "key": "ca91e64185e44224e42a69a05dd2e15e"
        }
      ],

      "channel_scan_timeout_seconds": 30,
      "home_timeout_seconds": 45,
      "guide_timeout_seconds": 600,
      "player_ui_timeout_seconds": 4,
      "zapper_timeout_seconds": 5,
      "guide_page_size_hours": 24,
      "query_timeout_seconds": 20,
      "standby_update_apply_delay_seconds": 120,
      "system_update_timeout_minutes":  60,
      "rus_window_timeout_minutes":  120,
      "quiescent_startup_enabled": false,
      "max_system_update_check_delay_hours": 28,
      "startup_timeout_seconds": 40,
      "module_data_source_timeout": 10,
      "remote_names": [
        "Proximus RC408",
        "Proximus RC408N",
        "Proximus RC408C"
      ],
      "baby_channel_warning_delay_seconds": 2,
      "max_number_of_channels": 999,
      "internet_check_timeout_seconds": 30,
      "hdmi_check_timeout_seconds": 25,
      "hints_minimum_display_time_seconds": 1,
      // The time for which the parental control is temporally unblocked.
      "parental_control_temporal_unblock_seconds": 600,
      // Time to wait in active standby before the box goes into network standby.
      "active_standby_timeout_minutes": 20,
      "audio_subtitle_language_map": {
        "LANGUAGE_DUTCH": ["nl", "nld", "du", "dut", "west-vlaams", "got", "bnl"],
        "LANGUAGE_FRENCH": ["fre", "frans", "fr", "fra", "qad", "qad-s"],
        "LANGUAGE_ENGLISH": ["engels", "en", "eng"],
        "LANGUAGE_GERMAN": ["de", "ger", "duits","deu"],
        "LANGUAGE_SPANISH": ["es"],
        "LANGUAGE_ITALIAN": ["it"],
        "LANGUAGE_UNDEFINED": ["und"],
        "LANGUAGE_OFF": ["deactivate"],
        "LANGUAGE_ORIGINAL_VERSION": ["qaa"]
      },

      "playback_settings": {
        "iptv_playback_timeout_seconds": 12,
        "ott_playback_timeout_seconds": 25,
        "prime_time": {
          "hour": 20,
          "minute": 0
        },
        "ott_live_edge_latency_ms": 16000,
        "minimumPlaybackStartSeconds": 1,
        "bufferSize": 20971520,
        "lowestInitTrack": true,
        "abrOn": true,
        "minDurationQualityIncrease": 7,
        "maxDurationQualityDecrease": 40,
        "minDurationRetainAfterDiscard": 15,
        "lowMediaTimeTrickplay": 35,
        "highMediaTimeTrickplay": 35,
        "lowMediaTime": 10,
        "highMediaTime": 25,
        "maximumLimitedBitrate": 4000000,
        "bandwidthControlMinimum": 13330,
        "drainWhileCharging" : false,
        "minDegradationSamples": 20,
        "manifestRetryCount": 3,
        "manifestRetryDelay": 4000,
        "segmentRetryCount": 2,
        "segmentRetryDelay": 4000,
        "manifestConnectTimeout": 3000,
        "manifestReadTimeout": 2000,
        "segmentConnectTimeout": 3000,
        "segmentReadTimeout": 7000,
        "drmConnectionTimeout": 7000,
        "drmReadTimeout": 2000,
        "drmAcquisitionTimeout": 10000,
        "playbackBufferingEventDelay": 20,
        "bingeWatchingDisplayTime": 11,
        "weakSignalEventDelay": 5,
        "startOverDelay": 25000,

        //seeking speed settings
        "minimum_seeking_speed_seconds" : 1,
        "maximum_seeking_speed_seconds" : 30,
        "maximum_seeking_speed_rewind_seconds" : 10,
        "single_press_jump_factor_percentage" : 2,
        "single_skip_back_seconds" : 10,
        "single_skip_forward_seconds": 30,
        "long_press_skip_factor": 5,

        //spinner delay
        "spinner_delay_seconds" : 6
      },

      "cache_settings": {
        "epg_cache_windows_length_min": 360,
        "epg_update_min" : 30,
        "channels_update_min": 1440,
        "recording_update_min": 1440,
        "vod_update_min": 720,
        "vod_purchase_update_min": 1440,
        "global_install_update_min" : 15,
        "boot_config_update_min" : 1440,
        "translations_update_min" : 720,
        "config_update_min" : 720,
        "account_info_update_min" : 1440,
        "watchlist_update_min" : 180,
        "consent_update_limit_days" : 14
      },

      "notification_settings": {
        "low_priority_duration": "2",
        "normal_priority_duration": "4",
        "high_priority_duration": "10",
        "urgent_priority_duration": "60",
        "minimum_display_duration": "2",
        "display_icon_when_empty": true
      },

      "offline_mode_settings": {
        "notification_redisplay_period" : "600",
        "backend_check_period_min_min": "15",
        "backend_check_period_max_min": "45",
        "internet_check_period_sec": "3"
      },

      "initial_app_order": [
        "com.android.vending",
        "com.google.android.videos",
        "com.google.android.youtube.tv",
        "com.google.android.youtube.tvmusic",
        "com.google.android.play.games"
      ],
      "netflix_partner_id": "proximus-34a9c932"
    },
    "content_config": {
      "configs": [
        {
          "title": "MODULE_MAIN_MENU_APPS",
          "id": "APPS_GAMES",
          "type": "modular_page",
          "modules": [
            {
              "title": "",
              "module": "Stripe",
              "type": "android_tv_system_notifications",
              "variant": "d1",
              "datasource": {
                "Service": "AndroidGms",
                "request": {
                  "method": "android_tv_notifications"
                },
                "params": {
                  "filter": [
                    "priority[critical]"
                  ]
                }
              }
            },

            {
              "title": "APPS_RECOMMENDED",
              "module": "Stripe",
              "type": "android_tv_apps",
              "variant": "a1",
              "datasource": {
                "Service": "AndroidGms",
                "request": {
                  "method": "android_tv_apps"
                },
                "params": {
                  "filter": [
                    "type[featured]"
                  ],
                  "sort": [
                    "featured"
                  ]
                }
              }
            },
            {
              "title": "APPS_INSTALLED_APPS",
              "module": "Collection",
              "type": "android_tv_apps",
              "variant": "a1",
              "datasource": {
                "Service": "AndroidGms",
                "request": {
                  "method": "android_tv_apps"
                },
                "params": {
                  "filter": [
                    "type[installed]"
                  ],
                  "sort": [
                    "store","recency"
                  ]
                }
              },
              "id": 1
            }
          ],
          "subpages": []
        }
      ],
      "main_menu": [
        {
          "title": "MODULE_MAIN_MENU_APPS",
          "id": "APPS_GAMES"
        }
      ]
    },
    "layout_config": {
      "title": "Operator",
      "language": "en",
      "logo": "proximus_menu_logo",
      "primary_start": "#F23D24",
      "primary_end": "#DF2D5F",
      "placeholder": "#1E122C",
      "error": "#EE2E5D",
      "font": "#FFFFFF",
      "focused_font": "#FFFFFF",
      "focused_background": "#ffffff",
      "placeholder_font": "#EEEEEE",
      "menu_selector_focused": "#E83444",
      "menu_selector_active": "#FFFFFF",
      "menu_selector_no_state": "#FFFFFF",
      "settings_submenu_color": "#56ACFC",
      "button_focused_font": "#FFFFFF",
      "button_active_start": "#1E122C",
      "button_active_end": "#1E122C",
      "button_focused_start": "#F23D24",
      "button_focused_end": "#DF2D5F",
      "button_no_state_start": "#1E122C",
      "button_no_state_end": "#1E122C",
      "loading_button_color": "#1A1A1A",
      "button_pressed_start": "#F23D24",
      "button_pressed_end": "#DF2D5F",
      "input_cursor_color":"#EE2E5D",
      "black_color": "#000000",
      "welcome_logo": "proximus_logo",
      "welcome_color": "#0A0A0A",
      "switch_thumb_checked_color": "#4FA7FA",
      "switch_track_checked_color": "#4D4FA7FA",
      "switch_thumb_unchecked_color": "#B9B9B9",
      "switch_track_unchecked_color": "#52EEEEEE",
      "radio_button_checked_color" : "#56ACFC",
      "radio_button_unchecked_color" :"#B3FFFFFF",
      "play_icon": "playback_play_icon",
      "rewind_icon": "playback_rw_icon",
      "forward_icon": "playback_fw_icon",
      "pause_icon": "playback_pause_icon",
      "channel_logo_set": "light",
      "background": "#000000",
      "notification_background": "#000000",
      "hide_first_menu_item": "false"
    },
    "feature_control": {
      "search": true,
      "offline": true,
      "extended_page_config": false,
      "epg_all_channels": true,
      "pvr": false,
      "open_home_after_standby": true
    },
    "internet_check_hints": [
      {
        "id": "1001",
        "title": "",
        "images": {
          "en": [
            "hint_internet_first_en",
            "hint_internet_second_en",
            "hint_internet_third_en",
            "hint_internet_fourth_en"
          ],
          "fr": [
            "hint_internet_first_fr",
            "hint_internet_second_fr",
            "hint_internet_third_fr",
            "hint_internet_fourth_fr"
          ],
          "nl": [
            "hint_internet_first_nl",
            "hint_internet_second_nl",
            "hint_internet_third_nl",
            "hint_internet_fourth_nl"
          ]
        }
      }
  ]
  },
  "err": null,
  "transaction_id": "a345afd0-34ce-11e7-bc70-61e74cafe303",
  "servertime": 1494344776600
}